…
```r
# carregando o dataset
path = "C:/Users/DELL/OneDrive/R/Rprojetos/ufpr_ppgecon/estatistica/data/dataset2.csv"
df <- read_csv2(path)

# Calculando a variação percentual ano a ano
df$variacao_1980_1991 <- (df$`1991` - df$`1980`) / df$`1980` * 100
df$variacao_1991_2000 <- (df$`2000` - df$`1991`) / df$`1991` * 100
df$variacao_1980_2000 <- (df$`2000` - df$`1980`) / df$`1980` * 100
df
```

```
## # A tibble: 150 × 7
##    municipio          `1980` `1991` `2000` variacao_1980_1991 variacao_1991_2000
##    <chr>               <dbl>  <dbl>  <dbl>              <dbl>              <dbl>
##  1 Abatiá               55.4   30.1   19.5             -45.7               -35.2
##  2 Adrianópolis         67.9   41.5   18.9             -38.8               -54.4
##  3 Agudos do Sul        65.1   45.1   25.1             -30.7               -44.4
##  4 Almirante Tamanda…   57.5   45.3   28               -21.3               -38.1
##  5 Bela Vista do Par…   39.4   26.3   14.1             -33.2               -46.3
##  6 Bituruna             55.5   61.0   28.1               9.97              -53.9
##  7 Boa Esperança        96.3   46.7   35               -51.5               -25.0
##  8 Cascavel             75.1   39.9   19.5             -46.9               -51.1
##  9 Castro               66.7   45.0   27.8             -32.6               -38.2
## 10 Catanduvas           56.6   49.4   25.2             -12.8               -49.0
## # ℹ 140 more rows
## # ℹ 1 more variable: variacao_1980_2000 <dbl>
```
…
